<?xml version="1.0" encoding="utf-8"?>
<!-- Generator: Adobe Illustrator 19.0.0, SVG Export Plug-In . SVG Version: 6.00 Build 0)  -->
<svg version="1.1" id="Layer_1" xmlns="http://www.w3.org/2000/svg" xmlns:xlink="http://www.w3.org/1999/xlink" x="0px" y="0px"
	 viewBox="0 0 167.9 167.9" style="enable-background:new 0 0 167.9 167.9;" xml:space="preserve">
<style type="text/css">
	.st0{fill:none;stroke:#FFFFFF;stroke-width:8;stroke-miterlimit:10;}
</style>
<polyline class="st0" points="84,0 84,84 0,84 "/>
<path class="st0" d="M84,84"/>
<polyline class="st0" points="84,167.9 84,84 167.9,84 "/>
<path class="st0" d="M84,84"/>
</svg>
